INDEX VERSION 1.130+C:\Users\nmuel\OneDrive\Documents\CS203\Binary\.metadata\.plugins\org.eclipse.jdt.core
1924480154.index
2725125150.index
1686655237.index
189530877.index
4005617011.index
160895277.index
3608585563.index
543409727.index
2816613229.index
3982276604.index
197789008.index
2075892729.index
134360950.index
4062329064.index
3145607036.index
1654674800.index
1056031855.index
3449055620.index
3627084181.index
